<?xml version="1.0" encoding="utf-8"?>
<!-- Generator: Adobe Illustrator 19.2.0, SVG Export Plug-In . SVG Version: 6.00 Build 0)  -->
<svg version="1.1" id="Слой_1" xmlns="http://www.w3.org/2000/svg" xmlns:xlink="http://www.w3.org/1999/xlink" x="0px" y="0px"
	 viewBox="0 0 582.3 195.8" style="enable-background:new 0 0 582.3 195.8;" xml:space="preserve"
     fill="#333">
<g>
	<path d="M41.1,119.7v20c0,11.1,4.9,15.1,12.7,15.1c7.8,0,12.7-4,12.7-15.1v-33.6H44V83.9h22.5V55.7c0-11.1-4.9-15.3-12.7-15.3
		c-7.8,0-12.7,4.2-12.7,15.3v14.7H18.5V57.2c0-24.9,12-39.1,36-39.1c24,0,36.5,14.2,36.5,39.1v80.9c0,24.9-12.4,39.1-36.5,39.1
		c-24,0-36.5-14.2-36.5-39.1v-18.5H41.1z"/>
	<path d="M142.7,113.5l-7.6,14.2v47.8h-24.5V19.9h24.5v67.8l32-67.8h24.5l-34,69.4l34,86.3h-25.1L142.7,113.5z"/>
	<path d="M279,58.3v20.2c0,24.9-12,38.5-36.5,38.5H231v58.5h-24.5V19.9h36C267,19.9,279,33.4,279,58.3z M231,42.1v52.7h11.6
		c7.8,0,12-3.6,12-14.7V56.8c0-11.1-4.2-14.7-12-14.7H231z"/>
	<path d="M348.4,135.9c-5.8,28-15.3,42-49.4,39.8v-21.8c12.4,0.9,19.6-1.3,21.6-12.7l0.2-1.3L287,19.9h24.2L324.6,73l7.6,36.5
		l5.8-36.2l11.1-53.4h25.6L348.4,135.9z"/>
	<path d="M467.8,175.5h-24.7l-4.2-28.2h-30l-4.2,28.2h-22.5l24.9-155.6h35.8L467.8,175.5z M412,126.1h23.6l-11.8-78.7L412,126.1z"/>
	<path d="M476,153.5c11.1,0,14.7-1.6,15.1-16l4-117.6h69.1v155.6h-24.9V42.1H518l-2.7,94c-0.9,28.5-11.1,39.6-35.6,39.6H476V153.5z"
		/>
</g>
</svg>
