<svg width="1920" height="12801" viewBox="0 0 1920 12801" fill="none" xmlns="http://www.w3.org/2000/svg">
<rect x="-178" width="2305" height="12801" fill="url(#paint0_linear)"/>
<defs>
<linearGradient id="paint0_linear" x1="974.5" y1="0" x2="974.5" y2="12801" gradientUnits="userSpaceOnUse">
<stop stop-color="#F3F3F3" stop-opacity="0"/>
<stop offset="0.171875" stop-color="#E9E9E9"/>
<stop offset="0.635417" stop-color="#E9E9E9"/>
<stop offset="1" stop-color="#C4C4C4" stop-opacity="0"/>
</linearGradient>
</defs>
</svg>
