<svg width="640" height="3771" viewBox="0 0 640 3771" fill="none" xmlns="http://www.w3.org/2000/svg">
<path d="M-1143.28 918.922H-588.69V3193.4L-1143.28 2858.51V918.922Z" fill="url(#paint0_linear)"/>
<path d="M-588.69 918.922H-32.4568V3522.2L-588.69 3290.35V918.922Z" fill="url(#paint1_linear)"/>
<path d="M-32.4568 918.922H679.004V3630.15L323.274 3770.9L-32.4568 3630.15V918.922Z" fill="url(#paint2_linear)"/>
<path d="M679.004 918.922H1235.24V3290.35L679.004 3522.2V918.922Z" fill="url(#paint3_linear)"/>
<path d="M1235.24 918.922H1785.25V2858.51L1235.24 3193.4V918.922Z" fill="url(#paint4_linear)"/>
<path d="M-525.626 3179.89V3178.2L-527.073 3177.33L-1042.67 2865.87V2.99645H1681.59V2865.88L1170.25 3177.33L1168.81 3178.21V3179.89V3268.3L606.341 3499.29L604.483 3500.06V3502.06V3600.35L321.593 3709.14L38.7037 3600.35V3501.72V3499.71L36.8441 3498.95L-525.626 3268.3V3179.89Z" stroke="url(#paint5_linear)" stroke-width="5.99291"/>
<defs>
<linearGradient id="paint0_linear" x1="320.986" y1="417.506" x2="320.986" y2="3680.56" gradientUnits="userSpaceOnUse">
<stop offset="0.37168" stop-color="#E2E2E2" stop-opacity="0.15"/>
<stop offset="1" stop-color="#CCCCCC" stop-opacity="0.84"/>
</linearGradient>
<linearGradient id="paint1_linear" x1="320.986" y1="417.506" x2="320.986" y2="3680.56" gradientUnits="userSpaceOnUse">
<stop offset="0.37168" stop-color="#E2E2E2" stop-opacity="0.15"/>
<stop offset="1" stop-color="#CCCCCC" stop-opacity="0.84"/>
</linearGradient>
<linearGradient id="paint2_linear" x1="320.986" y1="417.506" x2="320.986" y2="3680.56" gradientUnits="userSpaceOnUse">
<stop offset="0.37168" stop-color="#E2E2E2" stop-opacity="0.15"/>
<stop offset="1" stop-color="#CCCCCC" stop-opacity="0.84"/>
</linearGradient>
<linearGradient id="paint3_linear" x1="320.986" y1="417.506" x2="320.986" y2="3680.56" gradientUnits="userSpaceOnUse">
<stop offset="0.37168" stop-color="#E2E2E2" stop-opacity="0.15"/>
<stop offset="1" stop-color="#CCCCCC" stop-opacity="0.84"/>
</linearGradient>
<linearGradient id="paint4_linear" x1="320.986" y1="417.506" x2="320.986" y2="3680.56" gradientUnits="userSpaceOnUse">
<stop offset="0.37168" stop-color="#E2E2E2" stop-opacity="0.15"/>
<stop offset="1" stop-color="#CCCCCC" stop-opacity="0.84"/>
</linearGradient>
<linearGradient id="paint5_linear" x1="319.46" y1="0" x2="319.46" y2="3712.35" gradientUnits="userSpaceOnUse">
<stop stop-color="white" stop-opacity="0"/>
<stop offset="1" stop-color="white"/>
</linearGradient>
</defs>
</svg>
