<svg width="12" height="10" viewBox="0 0 12 10" fill="none" xmlns="http://www.w3.org/2000/svg">
<path d="M4.73887 9.12222L6.19359 7.64173L11.2851 2.45999L9.83041 0.979492L4.73885 6.16124L2.27064 3.64935L0.815918 5.12985L4.73887 9.12222Z" fill="#BFC1CD"/>
</svg>
