<svg width="60" height="48" viewBox="0 0 60 48" fill="none" xmlns="http://www.w3.org/2000/svg">
<path d="M0 0H44.4797L59.7374 13.3714V48H16.298L0 32.9143V0Z" fill="#BFC1CD"/>
<path d="M26.3238 32.3541L30.2557 29.1388L44.0174 17.8852L40.0855 14.6699L26.3238 25.9235L19.6526 20.4683L15.7207 23.6836L26.3238 32.3541Z" fill="white"/>
</svg>
